Access the Geonames Data Export Service • places
…
The places_table() function downloads and parses the page into a tibble to make it easier to work with.

library(places)
places_table()

## # A tibble: 283 x 9
##    name   last_modified size  description file_name file_type url    iso  
##    <chr>  <chr>         <chr> <chr>       <chr>     <chr>     <chr>  <chr>
##  1 AD.zip 2018-06-12 0… 89K   <NA>        AD        zip       http:… AD   
##  2 AE.zip 2018-06-12 0… 235K  <NA>        AE        zip       http:… AE   
##  3 AF.zip 2018-06-12 0… 4.5M  <NA>        AF        zip       http:… AF   
##  4 AG.zip 2018-06-12 0… 25K   <NA>        AG        zip       http:… AG   
##  5 AI.zip 2018-06-12 0… 10K   <NA>        AI        zip       http:… AI   
##  6 AL.zip 2018-06-12 0… 299K  <NA>        AL        zip       http:… AL   
##  7 AM.zip 2018-06-12 0… 1.0M  <NA>        AM        zip       http:… AM   
##  8 AN.zip 2018-06-12 0… 3.8K  <NA>        AN        zip       http:… AN   
##  9 AO.zip 2018-06-12 0… 1.1M  <NA>        AO        zip       http:… AO   
## 10 AQ.zip 2018-06-12 0… 523K  <NA>        AQ        zip       http:… AQ   
## # ... with 273 more rows, and 1 more variable: other <chr>
…
places::places_lookup(c("Peoples republic of china", "Viet Nam", "Vietnam", "Lao", "Laos"))

## # A tibble: 1 x 5
##   `Peoples Republic Of China` `Viet Nam` Vietnam Lao   Laos 
##   <chr>                       <chr>      <chr>   <chr> <chr>
## 1 CN                          VN         VN      LA    LA

Behind the scences the name matching is handled by the countrycode package by Vincent Arul Bundock and collaborators. Country names can be expressed in all kinds of different ways and the countrycode package does a good job of recognising them. At present the places package only implements country names in English.

We use the countrycode package for lookup because of its flexibility. However, Geonames produces its own countryinfo table that can be imported as follows.

countryinfo <- places::places_countryinfo()
countryinfo

## # A tibble: 252 x 19
##    iso   iso3  isonumeric fips  country   capital area_in_sq_km population
##    <chr> <chr> <chr>      <chr> <chr>     <chr>           <dbl>      <int>
##  1 AD    AND   020        AN    Andorra   Andorr…          468.      84000
##  2 AE    ARE   784        AE    United A… Abu Dh…        82880.    4975593
##  3 AF    AFG   004        AF    Afghanis… Kabul         647500.   29121286
##  4 AG    ATG   028        AC    Antigua … St. Jo…          443.      86754
##  5 AI    AIA   660        AV    Anguilla  The Va…          102.      13254
##  6 AL    ALB   008        AL    Albania   Tirana         28748.    2986952
##  7 AM    ARM   051        AM    Armenia   Yerevan        29800.    2968000
##  8 AO    AGO   024        AO    Angola    Luanda       1246700.   13068161
##  9 AQ    ATA   010        AY    Antarcti… <NA>        14000000.          0
## 10 AR    ARG   032        AR    Argentina Buenos…      2766890.   41343201
## # ... with 242 more rows, and 11 more variables: continent <chr>,
## #   tld <chr>, currencycode <chr>, currencyname <chr>, phone <chr>,
## #   postal_code_format <chr>, postal_code_regex <chr>, languages <chr>,
## #   geonameid <int>, neighbours <chr>, equivalentfipscode <chr>
…
places::places()

Regions, Sub-Regions, intermediate regions and continents

To aid with multicountry analysis the package includes two combined add on tables.

The United Nations regions (M49) from the United Nations Statistical Division

World Bank regional divisions (through the World Development Indicators (WDI) package).

You can call these table directly:

unregions

## # A tibble: 249 x 15
##    un_global_code un_global_name un_region_code un_region_name
##             <int> <chr>                   <int> <chr>         
##  1              1 World                       2 Africa        
##  2              1 World                       2 Africa        
##  3              1 World                       2 Africa        
##  4              1 World                       2 Africa        
##  5              1 World                       2 Africa        
##  6              1 World                       2 Africa        
##  7              1 World                       2 Africa        
##  8              1 World                       2 Africa        
##  9              1 World                       2 Africa        
## 10              1 World                       2 Africa        
## # ... with 239 more rows, and 11 more variables: un_sub_region_code <int>,
## #   un_sub_region_name <chr>, un_intermediate_region_code <int>,
## #   un_intermediate_region_name <chr>, un_country_or_area <chr>,
## #   un_m49_code <int>, iso3 <chr>, un_least_developed_countries_ldc <int>,
## #   un_land_locked_developing_countries_lldc <int>,
## #   un_small_island_developing_states_sids <int>,
## #   un_developed_or_developing_countries <chr>
…
Additional regional information is available from the countrycode package and may be incorporated into places in future.

The two regional tables are combined with selected fields from the geonames package.

The regions file can be called as follows

places::regions

## # A tibble: 249 x 22
##    un_global_code un_global_name un_region_code un_region_name
##             <int> <chr>                   <int> <chr>         
##  1              1 World                       2 Africa        
##  2              1 World                       2 Africa        
##  3              1 World                       2 Africa        
##  4              1 World                       2 Africa        
##  5              1 World                       2 Africa        
##  6              1 World                       2 Africa        
##  7              1 World                       2 Africa        
##  8              1 World                       2 Africa        
##  9              1 World                       2 Africa        
## 10              1 World                       2 Africa        
## # ... with 239 more rows, and 18 more variables: un_sub_region_code <int>,
## #   un_sub_region_name <chr>, un_intermediate_region_code <int>,
## #   un_intermediate_region_name <chr>, un_country_or_area <chr>,
## #   un_m49_code <int>, iso3 <chr>, un_least_developed_countries_ldc <int>,
## #   un_land_locked_developing_countries_lldc <int>,
## #   un_small_island_developing_states_sids <int>,
## #   un_developed_or_developing_countries <chr>, iso <chr>,
## #   iso_numeric <chr>, fips <chr>, country <chr>, geonameid <int>,
## #   wb_region <chr>, wb_income <chr>
…
T Hypsographic Features

U Undersea Features

V Vegetation Features

An example of a corresponding code is:

H.ANCH anchorage R.OILP oil pipeline

To view the featurecodes use:

featurecodes

## # A tibble: 671 x 7
##    feature_full feature_class feature_code feature_name   feature_detail  
##    <chr>        <chr>         <chr>        <chr>          <chr>           
##  1 A.ADM1       A             ADM1         first-order a… a primary admin…
##  2 A.ADM1H      A             ADM1H        historical fi… a former first-…
##  3 A.ADM2       A             ADM2         second-order … a subdivision o…
##  4 A.ADM2H      A             ADM2H        historical se… a former second…
##  5 A.ADM3       A             ADM3         third-order a… a subdivision o…
##  6 A.ADM3H      A             ADM3H        historical th… a former third-…
##  7 A.ADM4       A             ADM4         fourth-order … a subdivision o…
##  8 A.ADM4H      A             ADM4H        historical fo… a former fourth…
##  9 A.ADM5       A             ADM5         fifth-order a… a subdivision o…
## 10 A.ADM5H      A             ADM5H        historical fi… a former fifth-…
## # ... with 661 more rows, and 2 more variables: feature_clean <chr>,
## #   multi <lgl>
…
