lookup — lookup • places
…
un_m49_codea numeric vector

un_least_developed_countries_ldca numeric vector

un_land_locked_developing_countries_lldca numeric vector

un_small_island_developing_states_sidsa numeric vector

un_developed_or_developing_countriesa character vector

    Examples

lookup
#> # A tibble: 252 x 33
#>    iso   iso3  iso_numeric fips  country capital area_in_sq_km capital_populat…
#>    <chr> <chr> <chr>       <chr> <chr>   <chr>   <chr>         <chr>           
#>  1 AD    AND   020         AN    Andorra Andorr… 468           84000           
#>  2 AE    ARE   784         AE    United… Abu Dh… 82880         4975593         
#>  3 AF    AFG   004         AF    Afghan… Kabul   647500        29121286        
#>  4 AG    ATG   028         AC    Antigu… St. Jo… 443           86754           
#>  5 AI    AIA   660         AV    Anguil… The Va… 102           13254           
#>  6 AL    ALB   008         AL    Albania Tirana  28748         2986952         
#>  7 AM    ARM   051         AM    Armenia Yerevan 29800         2968000         
#>  8 AO    AGO   024         AO    Angola  Luanda  1246700       13068161        
#>  9 AQ    ATA   010         AY    Antarc… <NA>    14000000      0               
#> 10 AR    ARG   032         AR    Argent… Buenos… 2766890       41343201        
#> # ... with 242 more rows, and 25 more variables: continent <chr>, tld <chr>,
#> #   currencycode <chr>, currencyname <chr>, phone <chr>,
#> #   postal_code_format <chr>, postal_code_regex <chr>, languages <chr>,
#> #   country_geonameid <chr>, neighbours <chr>, equivalentfipscode <chr>,
#> #   un_global_code <int>, un_global_name <chr>, un_region_code <int>,
#> #   un_region_name <chr>, un_sub_region_code <int>, un_sub_region_name <chr>,
#> #   un_intermediate_region_code <int>, un_intermediate_region_name <chr>,
#> #   un_country_or_area <chr>, un_m49_code <int>,
#> #   un_least_developed_countries_ldc <int>,
…
